{
	"id": "f1ee46bc-6d2c-4e06-acd2-c5c4b7502218",
	"name": "AWS Luis",
	"values": [
		{
			"key": "baseUrl",
			"value": "http://production.eba-pjgws7cm.us-east-2.elasticbeanstalk.com/",
			"enabled": true
		}
	],
	"_postman_variable_scope": "environment",
	"_postman_exported_at": "2022-05-25T23:41:11.086Z",
	"_postman_exported_using": "Postman/8.0.6"
}